﻿rire;0
sourire;0
calin;0
bisous;0
serrage de main;0
sourcils froncés;1
soufflement;1
doigt pointé;1
crispé;1
vandalisme;2
doigt d'honneur;2
mouvement de foule;2
poing sérré;2
chute;2
coup de pied;3
quennelle;3
salut nazi;3
coup de poing;3
arme blanche;4
